/*!
 * ReDoc - OpenAPI/Swagger-generated API Reference Documentation
 * -------------------------------------------------------------
 *   Version: "1.0.3"
 *   Repo: https://github.com/Redocly/redoc
 */
